Multinomial classification with tidymodels and volcano eruption - Rhyeu's blog
…
library(ranger)

Explore the data

Our modeling goal is to predict the type of volcano from this week’s #TidyTuesday dataset based on other volcano characteristics like latitude, longitude, tectonic setting, etc. There are more than just two types of volcanoes, so this is an example of multiclass or multinomial classification instead of binary classification. Let’s use a random forest model, because this type of model performs well with defaults.

volcano_raw <- readr::read_csv('https://raw.githubusercontent.com/rfordatascience/tidytuesday/master/data/2020/2020-05-12/volcano.csv')

volcano_raw %>%
  count(primary_volcano_type, sort = TRUE)

## # A tibble: 26 x 2
##    primary_volcano_type     n
##    <chr>                <int>
##  1 Stratovolcano          353
##  2 Stratovolcano(es)      107
##  3 Shield                  85
##  4 Volcanic field          71
##  5 Pyroclastic cone(s)     70
##  6 Caldera                 65
##  7 Complex                 46
##  8 Shield(s)               33
##  9 Submarine               27
## 10 Lava dome(s)            26
## # ... with 16 more rows
…
The biggest thing I know about volcanoes is the Ring of Fire “fire” and there it is!

Build a model

Instead of splitting this small-ish dataset into training and testing data, let’s create a set of bootstrap resamples.

library(tidymodels)

volcano_boot <- bootstraps(volcano_df)
volcano_boot

## # Bootstrap sampling 
## # A tibble: 25 x 2
##    splits            id         
##    <list>            <chr>      
##  1 <split [958/357]> Bootstrap01
##  2 <split [958/372]> Bootstrap02
##  3 <split [958/346]> Bootstrap03
##  4 <split [958/356]> Bootstrap04
##  5 <split [958/365]> Bootstrap05
##  6 <split [958/363]> Bootstrap06
##  7 <split [958/353]> Bootstrap07
##  8 <split [958/360]> Bootstrap08
##  9 <split [958/363]> Bootstrap09
## 10 <split [958/367]> Bootstrap10
## # ... with 15 more rows
…
juice(volcano_prep) # checking

## # A tibble: 1,383 x 14
##    volcano_number latitude longitude elevation volcano_type tectonic_settin~
##             <dbl>    <dbl>     <dbl>     <dbl> <fct>                   <dbl>
##  1         283001   0.618      0.984   -0.875  Shield                 -0.289
##  2         355096  -1.21      -0.830    2.97   Stratovolca~           -0.289
##  3         342080  -0.0153    -1.04     1.50   Stratovolca~           -0.289
##  4         213004   0.746      0.101   -0.131  Other                  -0.289
##  5         321040   0.988     -1.32     1.34   Stratovolca~           -0.289
##  6         283170   0.718      1.06    -0.0992 Stratovolca~           -0.289
##  7         221170  -0.156      0.158   -0.0956 Stratovolca~           -0.289
##  8         221110  -0.0601     0.158   -0.440  Stratovolca~           -0.289
##  9         284160   0.120      1.11    -0.644  Stratovolca~           -0.289
## 10         342100  -0.0165    -1.04     1.35   Stratovolca~           -0.289
## # ... with 1,373 more rows, and 8 more variables:
## #   tectonic_settings_Rift.zone...Oceanic.crust....15.km. <dbl>,
## #   tectonic_settings_Subduction.zone...Continental.crust...25.km. <dbl>,
## #   tectonic_settings_Subduction.zone...Oceanic.crust....15.km. <dbl>,
## #   tectonic_settings_other <dbl>, major_rock_1_Basalt...Picro.Basalt <dbl>,
## #   major_rock_1_Dacite <dbl>,
## #   major_rock_1_Trachybasalt...Tephrite.Basanite <dbl>,
## #   major_rock_1_other <dbl>
…
Next, we update the role for volcano number, since this is a variable we want to keep around for convenience as an identifier for rows but is not a predictor or outcome.

There are a lot of different tectonic setting and rocks in this dataset, so let’s collapse some of the less frequently occurring levels into an "Other" category, for each predictor.

Next, we can create indicator variables and remove variables with zero variance.

Before oversampling, we center and scale (i.e. normalize) all the predictors.

Finally, we implement SMOTE oversampling so that the volcano types are balanced!

volcano_prep <- prep(volcano_rec)
juice(volcano_prep)

## # A tibble: 1,383 x 14
##    volcano_number latitude longitude elevation volcano_type tectonic_settin~
##             <dbl>    <dbl>     <dbl>     <dbl> <fct>                   <dbl>
##  1         283001   0.618      0.984   -0.875  Shield                 -0.289
##  2         355096  -1.21      -0.830    2.97   Stratovolca~           -0.289
##  3         342080  -0.0153    -1.04     1.50   Stratovolca~           -0.289
##  4         213004   0.746      0.101   -0.131  Other                  -0.289
##  5         321040   0.988     -1.32     1.34   Stratovolca~           -0.289
##  6         283170   0.718      1.06    -0.0992 Stratovolca~           -0.289
##  7         221170  -0.156      0.158   -0.0956 Stratovolca~           -0.289
##  8         221110  -0.0601     0.158   -0.440  Stratovolca~           -0.289
##  9         284160   0.120      1.11    -0.644  Stratovolca~           -0.289
## 10         342100  -0.0165    -1.04     1.35   Stratovolca~           -0.289
## # ... with 1,373 more rows, and 8 more variables:
## #   tectonic_settings_Rift.zone...Oceanic.crust....15.km. <dbl>,
## #   tectonic_settings_Subduction.zone...Continental.crust...25.km. <dbl>,
## #   tectonic_settings_Subduction.zone...Oceanic.crust....15.km. <dbl>,
## #   tectonic_settings_other <dbl>, major_rock_1_Basalt...Picro.Basalt <dbl>,
## #   major_rock_1_Dacite <dbl>,
## #   major_rock_1_Trachybasalt...Tephrite.Basanite <dbl>,
## #   major_rock_1_other <dbl>
…
Now we can fit our workflow to our resamples.

volcano_res <- fit_resamples(
  volcano_wf, 
  resamples = volcano_boot,
  control = control_resamples(save_pred =  T, # 예측 결과값도 가지고 있음
                              
                              verbose = F)
)

volcano_res

## # Resampling results
## # Bootstrap sampling 
## # A tibble: 25 x 5
##    splits           id          .metrics        .notes         .predictions     
##    <list>           <chr>       <list>          <list>         <list>           
##  1 <split [958/357~ Bootstrap01 <tibble [2 x 3~ <tibble [0 x ~ <tibble [357 x 6~
##  2 <split [958/372~ Bootstrap02 <tibble [2 x 3~ <tibble [0 x ~ <tibble [372 x 6~
##  3 <split [958/346~ Bootstrap03 <tibble [2 x 3~ <tibble [0 x ~ <tibble [346 x 6~
##  4 <split [958/356~ Bootstrap04 <tibble [2 x 3~ <tibble [0 x ~ <tibble [356 x 6~
##  5 <split [958/365~ Bootstrap05 <tibble [2 x 3~ <tibble [0 x ~ <tibble [365 x 6~
##  6 <split [958/363~ Bootstrap06 <tibble [2 x 3~ <tibble [0 x ~ <tibble [363 x 6~
##  7 <split [958/353~ Bootstrap07 <tibble [2 x 3~ <tibble [0 x ~ <tibble [353 x 6~
##  8 <split [958/360~ Bootstrap08 <tibble [2 x 3~ <tibble [0 x ~ <tibble [360 x 6~
##  9 <split [958/363~ Bootstrap09 <tibble [2 x 3~ <tibble [0 x ~ <tibble [363 x 6~
## 10 <split [958/367~ Bootstrap10 <tibble [2 x 3~ <tibble [0 x ~ <tibble [367 x 6~
## # ... with 15 more rows
…
The spatial information is really important for the model, followed by the presence of basalt. Let’s explore the spatial information a bit further, and make a map showing how right or wrong our modeling is across the world. Let’s join the predictions back to the original data.

volcano_pred <- volcano_res %>% 
  collect_predictions() %>% 
  mutate(correct = volcano_type == .pred_class) %>% 
  left_join(volcano_df %>% 
              mutate(.raw = row_number()))

volcano_pred

## # A tibble: 3,392,404 x 15
##    id    .pred_Other .pred_Shield .pred_Stratovol~  .row .pred_class
##    <chr>       <dbl>        <dbl>            <dbl> <int> <fct>      
##  1 Boot~       0.415      0.00737            0.578     2 Stratovolc~
##  2 Boot~       0.415      0.00737            0.578     2 Stratovolc~
##  3 Boot~       0.415      0.00737            0.578     2 Stratovolc~
##  4 Boot~       0.415      0.00737            0.578     2 Stratovolc~
##  5 Boot~       0.415      0.00737            0.578     2 Stratovolc~
##  6 Boot~       0.415      0.00737            0.578     2 Stratovolc~
##  7 Boot~       0.415      0.00737            0.578     2 Stratovolc~
##  8 Boot~       0.415      0.00737            0.578     2 Stratovolc~
##  9 Boot~       0.415      0.00737            0.578     2 Stratovolc~
## 10 Boot~       0.415      0.00737            0.578     2 Stratovolc~
## # ... with 3,392,394 more rows, and 9 more variables: volcano_type <fct>,
## #   correct <lgl>, volcano_number <dbl>, latitude <dbl>, longitude <dbl>,
## #   elevation <dbl>, tectonic_settings <fct>, major_rock_1 <fct>, .raw <int>
…
