…
Sepal.Length~Sepal.Width조합 말고는 의미가 있을 지도

data modeling

iris_rec <- training(iris_split) %>% 
  recipe(Species ~ .) %>% 
  step_center(all_predictors()) %>% 
  step_scale(all_predictors()) %>% prep()

juice(iris_rec)

## # A tibble: 105 x 5
##    Sepal.Length Sepal.Width Petal.Length Petal.Width Species
##           <dbl>       <dbl>        <dbl>       <dbl> <fct>  
##  1       -0.907      0.995         -1.34       -1.32 setosa 
##  2       -1.38       0.306         -1.39       -1.32 setosa 
##  3       -1.50       0.0765        -1.28       -1.32 setosa 
##  4       -0.552      1.91          -1.17       -1.06 setosa 
##  5       -1.50       0.765         -1.34       -1.19 setosa 
##  6       -1.02       0.765         -1.28       -1.32 setosa 
##  7       -1.73      -0.383         -1.34       -1.32 setosa 
##  8       -1.14       0.0765        -1.28       -1.45 setosa 
##  9       -0.552      1.45          -1.28       -1.32 setosa 
## 10       -1.26       0.765         -1.23       -1.32 setosa 
## # ... with 95 more rows
…
